50,64847.92
100,16413.2
150,15777.105
200,20160.045
250,21700.074
300,30152.635
350,29483.63
400,33213.625
450,40736.54
500,44650.46
550,52405.336
600,53801.113
650,55844.785
700,59089.69
750,63867.996
800,71544.164
850,75595.53
900,77829.06
950,81848.56
1000,86131.02
