50,128188.69
100,21298.47
150,87770.58
200,32580.85
250,35010.785
300,50396.85
350,48889.676
400,55667.453
450,66936.4
500,74017.31
550,87154.8
600,90962.94
650,93825.56
700,100438.56
750,110036.84
800,121188.64
850,130847.07
900,134039.12
950,140885.9
1000,150079.34
